Learning Precision is: 0.0/1.0=0.0
New record 
Learning Precision is: 0.0/2.0=0.0
New record 
Learning Precision is: 0.0/3.0=0.0
New record 
Learning Precision is: 0.0/4.0=0.0
New record 
Learning Precision is: 1.0/5.0=0.2
New record 
Learning Precision is: 2.0/6.0=0.3333333333333333
New record 
Learning Precision is: 3.0/7.0=0.42857142857142855
New record 
Learning Precision is: 4.0/8.0=0.5
New record 
Learning Precision is: 5.0/9.0=0.5555555555555556
New record 
Learning Precision is: 6.0/10.0=0.6
New record 
Learning Precision is: 7.0/11.0=0.6363636363636364
New record 
Learning Precision is: 8.0/12.0=0.6666666666666666
New record 
Learning Precision is: 9.0/13.0=0.6923076923076923
New record 
Learning Precision is: 10.0/14.0=0.7142857142857143
New record 
Learning Precision is: 11.0/15.0=0.7333333333333333
New record 
Learning Precision is: 12.0/16.0=0.75
New record 
Learning Precision is: 13.0/17.0=0.7647058823529411
New record 
Learning Precision is: 14.0/18.0=0.7777777777777778
New record 
Learning Precision is: 15.0/19.0=0.7894736842105263
New record 
Learning Precision is: 16.0/20.0=0.8
New record 
Learning Precision is: 17.0/21.0=0.8095238095238095
New record 
Learning Precision is: 18.0/22.0=0.8181818181818182
New record 
Learning Precision is: 19.0/23.0=0.8260869565217391
New record 
Learning Precision is: 20.0/24.0=0.8333333333333334
New record 
Learning Precision is: 21.0/25.0=0.84
New record 
Learning Precision is: 22.0/26.0=0.8461538461538461
New record 
Learning Precision is: 23.0/27.0=0.8518518518518519
New record 
Learning Precision is: 24.0/28.0=0.8571428571428571
New record 
Learning Precision is: 25.0/29.0=0.8620689655172413
New record 
Learning Precision is: 26.0/30.0=0.8666666666666667
New record 
Learning Precision is: 27.0/31.0=0.8709677419354839
New record 
Learning Precision is: 28.0/32.0=0.875
New record 
Learning Precision is: 29.0/33.0=0.8787878787878788
New record 
Learning Precision is: 30.0/34.0=0.8823529411764706
New record 
Learning Precision is: 31.0/35.0=0.8857142857142857
New record 
Learning Precision is: 32.0/36.0=0.8888888888888888
New record 
Learning Precision is: 33.0/37.0=0.8918918918918919
New record 
Learning Precision is: 34.0/38.0=0.8947368421052632
New record 
Learning Precision is: 35.0/39.0=0.8974358974358975
New record 
Learning Precision is: 36.0/40.0=0.9
New record 
Learning Precision is: 37.0/41.0=0.9024390243902439
New record 
Learning Precision is: 38.0/42.0=0.9047619047619048
New record 
Learning Precision is: 39.0/43.0=0.9069767441860465
New record 
Learning Precision is: 40.0/44.0=0.9090909090909091
New record 
Learning Precision is: 41.0/45.0=0.9111111111111111
New record 
Learning Precision is: 42.0/46.0=0.9130434782608695
New record 
Learning Precision is: 43.0/47.0=0.9148936170212766
New record 
Learning Precision is: 44.0/48.0=0.9166666666666666
New record 
Learning Precision is: 45.0/49.0=0.9183673469387755
New record 
Learning Precision is: 46.0/50.0=0.92
New record 
Learning Precision is: 47.0/51.0=0.9215686274509803
New record 
Learning Precision is: 48.0/52.0=0.9230769230769231
New record 
Learning Precision is: 49.0/53.0=0.9245283018867925
New record 
Learning Precision is: 50.0/54.0=0.9259259259259259
New record 
Learning Precision is: 51.0/55.0=0.9272727272727272
New record 
Learning Precision is: 52.0/56.0=0.9285714285714286
New record 
Learning Precision is: 53.0/57.0=0.9298245614035088
New record 
Learning Precision is: 54.0/58.0=0.9310344827586207
New record 
Learning Precision is: 55.0/59.0=0.9322033898305084
New record 
Learning Precision is: 56.0/60.0=0.9333333333333333
New record 
Learning Precision is: 57.0/61.0=0.9344262295081968
New record 
Learning Precision is: 58.0/62.0=0.9354838709677419
New record 
Learning Precision is: 59.0/63.0=0.9365079365079365
New record 
Learning Precision is: 60.0/64.0=0.9375
New record 
Learning Precision is: 61.0/65.0=0.9384615384615385
New record 
Learning Precision is: 62.0/66.0=0.9393939393939394
New record 
Learning Precision is: 63.0/67.0=0.9402985074626866
New record 
Learning Precision is: 64.0/68.0=0.9411764705882353
New record 
Learning Precision is: 65.0/69.0=0.9420289855072463
New record 
Learning Precision is: 66.0/70.0=0.9428571428571428
New record 
Learning Precision is: 67.0/71.0=0.9436619718309859
New record 
Learning Precision is: 68.0/72.0=0.9444444444444444
New record 
Learning Precision is: 69.0/73.0=0.9452054794520548
New record 
Learning Precision is: 70.0/74.0=0.9459459459459459
New record 
Learning Precision is: 71.0/75.0=0.9466666666666667
New record 
Learning Precision is: 72.0/76.0=0.9473684210526315
New record 
Learning Precision is: 73.0/77.0=0.948051948051948
New record 
Learning Precision is: 74.0/78.0=0.9487179487179487
New record 
Learning Precision is: 75.0/79.0=0.9493670886075949
New record 
Learning Precision is: 76.0/80.0=0.95
New record 
Learning Precision is: 77.0/81.0=0.9506172839506173
New record 
Learning Precision is: 78.0/82.0=0.9512195121951219
New record 
Learning Precision is: 79.0/83.0=0.9518072289156626
New record 
Learning Precision is: 80.0/84.0=0.9523809523809523
New record 
Learning Precision is: 81.0/85.0=0.9529411764705882
New record 
Learning Precision is: 82.0/86.0=0.9534883720930233
New record 
Learning Precision is: 83.0/87.0=0.9540229885057471
New record 
Learning Precision is: 84.0/88.0=0.9545454545454546
New record 
Learning Precision is: 85.0/89.0=0.9550561797752809
New record 
Learning Precision is: 86.0/90.0=0.9555555555555556
New record 
Learning Precision is: 87.0/91.0=0.9560439560439561
New record 
Learning Precision is: 88.0/92.0=0.9565217391304348
New record 
Learning Precision is: 89.0/93.0=0.956989247311828
New record 
Learning Precision is: 90.0/94.0=0.9574468085106383
New record 
Learning Precision is: 91.0/95.0=0.9578947368421052
New record 
Learning Precision is: 92.0/96.0=0.9583333333333334
New record 
Learning Precision is: 93.0/97.0=0.9587628865979382
New record 
Learning Precision is: 94.0/98.0=0.9591836734693877
New record 
Learning Precision is: 95.0/99.0=0.9595959595959596
New record 
Learning Precision is: 96.0/100.0=0.96
New record 
Learning Precision is: 97.0/101.0=0.9603960396039604
New record 
Learning Precision is: 98.0/102.0=0.9607843137254902
New record 
Learning Precision is: 99.0/103.0=0.9611650485436893
New record 
Learning Precision is: 100.0/104.0=0.9615384615384616
New record 
Learning Precision is: 101.0/105.0=0.9619047619047619
New record 
Learning Precision is: 102.0/106.0=0.9622641509433962
New record 
Learning Precision is: 103.0/107.0=0.9626168224299065
New record 
Learning Precision is: 104.0/108.0=0.9629629629629629
New record 
Learning Precision is: 105.0/109.0=0.963302752293578
New record 
Learning Precision is: 106.0/110.0=0.9636363636363636
New record 
Learning Precision is: 107.0/111.0=0.963963963963964
New record 
Learning Precision is: 108.0/112.0=0.9642857142857143
New record 
Learning Precision is: 109.0/113.0=0.9646017699115044
New record 
Learning Precision is: 110.0/114.0=0.9649122807017544
New record 
Learning Precision is: 111.0/115.0=0.9652173913043478
New record 
Learning Precision is: 112.0/116.0=0.9655172413793104
New record 
Learning Precision is: 113.0/117.0=0.9658119658119658
New record 
Learning Precision is: 114.0/118.0=0.9661016949152542
New record 
Learning Precision is: 115.0/119.0=0.9663865546218487
New record 
Learning Precision is: 116.0/120.0=0.9666666666666667
New record 
Learning Precision is: 117.0/121.0=0.9669421487603306
New record 
Learning Precision is: 117.0/122.0=0.9590163934426229
New record 
Learning Precision is: 117.0/123.0=0.9512195121951219
New record 
Learning Precision is: 117.0/124.0=0.9435483870967742
New record 
Learning Precision is: 117.0/125.0=0.936
New record 
Learning Precision is: 117.0/126.0=0.9285714285714286
New record 
Learning Precision is: 117.0/127.0=0.9212598425196851
New record 
Learning Precision is: 117.0/128.0=0.9140625
New record 
Learning Precision is: 117.0/129.0=0.9069767441860465
New record 
Learning Precision is: 118.0/130.0=0.9076923076923077
New record 
Learning Precision is: 119.0/131.0=0.9083969465648855
New record 
Learning Precision is: 12