Learning Precision is: 0.0/1.0=0.0
New record 
Learning Precision is: 0.0/2.0=0.0
New record 
Learning Precision is: 0.0/3.0=0.0
New record 
Learning Precision is: 0.0/4.0=0.0
New record 
Learning Precision is: 0.0/5.0=0.0
New record 
Learning Precision is: 0.0/6.0=0.0
New record 
Learning Precision is: 0.0/7.0=0.0
New record 
Learning Precision is: 0.0/8.0=0.0
New record 
Learning Precision is: 0.0/9.0=0.0
New record 
Learning Precision is: 0.0/10.0=0.0
New record 
Learning Precision is: 0.0/11.0=0.0
New record 
Learning Precision is: 0.0/12.0=0.0
New record 
Learning Precision is: 0.0/13.0=0.0
New record 
Learning Precision is: 0.0/14.0=0.0
New record 
Learning Precision is: 0.0/15.0=0.0
New record 
Learning Precision is: 0.0/16.0=0.0
New record 
Learning Precision is: 0.0/17.0=0.0
New record 
Learning Precision is: 0.0/18.0=0.0
New record 
Learning Precision is: 0.0/19.0=0.0
New record 
Learning Precision is: 0.0/20.0=0.0
New record 
Learning Precision is: 0.0/21.0=0.0
New record 
Learning Precision is: 0.0/22.0=0.0
New record 
Learning Precision is: 0.0/23.0=0.0
New record 
Learning Precision is: 0.0/24.0=0.0
New record 
Learning Precision is: 0.0/25.0=0.0
New record 
Learning Precision is: 0.0/26.0=0.0
New record 
Learning Precision is: 0.0/27.0=0.0
New record 
Learning Precision is: 0.0/28.0=0.0
New record 
Learning Precision is: 0.0/29.0=0.0
New record 
Learning Precision is: 0.0/30.0=0.0
New record 
Learning Precision is: 0.0/31.0=0.0
New record 
Learning Precision is: 0.0/32.0=0.0
New record 
Learning Precision is: 0.0/33.0=0.0
New record 
Learning Precision is: 0.0/34.0=0.0
New record 
Learning Precision is: 0.0/35.0=0.0
New record 
Learning Precision is: 0.0/36.0=0.0
New record 
Learning Precision is: 0.0/37.0=0.0
New record 
Learning Precision is: 0.0/38.0=0.0
New record 
Learning Precision is: 0.0/39.0=0.0
New record 
Learning Precision is: 0.0/40.0=0.0
New record 
Learning Precision is: 0.0/41.0=0.0
New record 
Learning Precision is: 0.0/42.0=0.0
New record 
Learning Precision is: 0.0/43.0=0.0
New record 
Learning Precision is: 0.0/44.0=0.0
New record 
Learning Precision is: 0.0/45.0=0.0
New record 
Learning Precision is: 0.0/46.0=0.0
New record 
Learning Precision is: 0.0/47.0=0.0
New record 
Learning Precision is: 0.0/48.0=0.0
New record 
Learning Precision is: 0.0/49.0=0.0
New record 
Learning Precision is: 0.0/50.0=0.0
New record 
Learning Precision is: 0.0/51.0=0.0
New record 
Learning Precision is: 0.0/52.0=0.0
New record 
Learning Precision is: 0.0/53.0=0.0
New record 
Learning Precision is: 0.0/54.0=0.0
New record 
Learning Precision is: 0.0/55.0=0.0
New record 
Learning Precision is: 0.0/56.0=0.0
New record 
Learning Precision is: 0.0/57.0=0.0
New record 
Learning Precision is: 0.0/58.0=0.0
New record 
Learning Precision is: 0.0/59.0=0.0
New record 
Learning Precision is: 0.0/60.0=0.0
New record 
Learning Precision is: 0.0/61.0=0.0
New record 
Learning Precision is: 0.0/62.0=0.0
New record 
Learning Precision is: 0.0/63.0=0.0
New record 
Learning Precision is: 0.0/64.0=0.0
New record 
Learning Precision is: 0.0/65.0=0.0
New record 
Learning Precision is: 0.0/66.0=0.0
New record 
Learning Precision is: 0.0/67.0=0.0
New record 
Learning Precision is: 0.0/68.0=0.0
New record 
Learning Precision is: 0.0/69.0=0.0
New record 
Learning Precision is: 0.0/70.0=0.0
New record 
Learning Precision is: 0.0/71.0=0.0
New record 
Learning Precision is: 0.0/72.0=0.0
New record 
Learning Precision is: 0.0/73.0=0.0
New record 
Learning Precision is: 0.0/74.0=0.0
New record 
Learning Precision is: 0.0/75.0=0.0
New record 
Learning Precision is: 0.0/76.0=0.0
New record 
Learning Precision is: 0.0/77.0=0.0
New record 
Learning Precision is: 0.0/78.0=0.0
New record 
Learning Precision is: 0.0/79.0=0.0
New record 
Learning Precision is: 0.0/80.0=0.0
New record 
Learning Precision is: 0.0/81.0=0.0
New record 
Learning Precision is: 0.0/82.0=0.0
New record 
Learning Precision is: 0.0/83.0=0.0
New record 
Learning Precision is: 0.0/84.0=0.0
New record 
Learning Precision is: 0.0/85.0=0.0
New record 
Learning Precision is: 0.0/86.0=0.0
New record 
Learning Precision is: 0.0/87.0=0.0
New record 
Learning Precision is: 0.0/88.0=0.0
New record 
Learning Precision is: 0.0/89.0=0.0
New record 
Learning Precision is: 0.0/90.0=0.0
New record 
Learning Precision is: 0.0/91.0=0.0
New record 
Learning Precision is: 0.0/92.0=0.0
New record 
Learning Precision is: 0.0/93.0=0.0
New record 
Learning Precision is: 0.0/94.0=0.0
New record 
Learning Precision is: 0.0/95.0=0.0
New record 
Learning Precision is: 0.0/96.0=0.0
New record 
Learning Precision is: 0.0/97.0=0.0
New record 
Learning Precision is: 0.0/98.0=0.0
New record 
Learning Precision is: 0.0/99.0=0.0
New record 
Learning Precision is: 0.0/100.0=0.0
New record 
Learning Precision is: 0.0/101.0=0.0
New record 
Learning Precision is: 0.0/102.0=0.0
New record 
Learning Precision is: 0.0/103.0=0.0
New record 
Learning Precision is: 0.0/104.0=0.0
New record 
Learning Precision is: 0.0/105.0=0.0
New record 
Learning Precision is: 0.0/106.0=0.0
New record 
Learning Precision is: 0.0/107.0=0.0
New record 
Learning Precision is: 0.0/108.0=0.0
New record 
Learning Precision is: 0.0/109.0=0.0
New record 
Learning Precision is: 0.0/110.0=0.0
New record 
Learning Precision is: 1.0/111.0=0.009009009009009009
New record 
Learning Precision is: 2.0/112.0=0.017857142857142856
New record 
Learning Precision is: 3.0/113.0=0.02654867256637168
New record 
Learning Precision is: 4.0/114.0=0.03508771929824561
New record 
Learning Precision is: 5.0/115.0=0.043478260869565216
New record 
Learning Precision is: 6.0/116.0=0.05172413793103448
New record 
Learning Precision is: 7.0/117.0=0.05982905982905983
New record 
Learning Precision is: 8.0/118.0=0.06779661016949153
New record 
Learning Precision is: 9.0/119.0=0.07563025210084033
New record 
Learning Precision is: 10.0/120.0=0.08333333333333333
New record 
Learning Precision is: 11.0/121.0=0.09090909090909091
New record 
Learning Precision is: 12.0/122.0=0.09836065573770492
New record 
Learning Precision is: 13.0/123.0=0.10569105691056911
New record 
Learning Precision is: 14.0/124.0=0.11290322580645161
New record 
Learning Precision is: 15.0/125.0=0.12
New record 
Learning Precision is: 16.0/126.0=0.12698412698412698
New record 
Learning Precision is: 17.0/127.0=0.13385826771653545
New record 
Learning Precision is: 18.0/128.0=0.140625
New record 
Learning Precision is: 19.0/129.0=0.14728682170542637
New record 
Learning Precision is: 20.0/130.0=0.15384615384615385
New record 
Learning Precision is: 21.0/131.0=0.16030534351145037
New record 
Learning Precision is: 22.0/132.0=0.16666666666666666
New record 
Learning Precision is: 23.0/133.0=0.17293233082706766
New record 
Learning Precision is: 24.0/134.0=0.1791044776119403
New record 
Learning Precision is: 25.0/135.0=0.18518518518518517
New record 
Learning Precision is: 26.0/136.0=0.19117647058823528
New record 
Learning Precision is: 27.0/137.0=0.19708029197080293
New record 
Learning Precision is: 28.0/138.0=0.2028985507246377
New record 
Learning Precision is: 29.0/139.0=0.20863309352517986
New record 
Learning Precision is: 30.0/140.0=0.21428571428571427
New record 
Learning Precision is: 31.0/141.0=0.2198581560283688
New record 
Learning Precision is: 32.0/142.0=0.22535211267605634
New record 
Learning Precision is: 33.0/143.0=0.23076923076923078
New record 
Learning Precision is: 34.0/144.0=0.2361111111111111
New record 
Learning Precision is: 35.0/145.0=0.2413793103448276
New record 
Learning Precision is: 36.0/146.0=0.2465753424657534
New record 
Learning Precision is: 37.0/147.0=0.25170068027210885
New record 
Learning Precision is: 38.0/148.0=0.25675675675675674
New record 
Learning Precision is: 39.0/149.0=0.26174496644295303
New record 
Learning Precision is: 40.0/150.0=0.26666666666666666
New record 
Learning Precision is: 41.0/151.0=0.271523178807947
New record 
Learning Precision is: 42.0/152.0=0.27631578947368424
New record 
Learning Precision is: 43.0/153.0=0.28104575163398693
New record 
Learning Precision is: 44.0/154.0=0.2857142857142857
New record 
Learning Precision is: 45.0/155.0=0.2903225806451613
New record 
Learning Precision is: 46.0/156.0=0.2948717948717949
New record 
Learning Precision is: 47.0/157.0=0.29936305732484075
New record 
Learning Precision is: 47.0/158.0=0.2974683544303797
New record 
Learning Precision is: 47.0/159.0=0.29559748427672955
New record 
Learning Precision is: 47.0/160.0=0.29375
New record 
Learning Precision is: 47.0/161.0=0.2919254658385093
New record 
Learning Precision is: 47.0/162.0=0.29012345679012347
New record 
Learning Precision is: 47.0/163.0=0.2883435582822086
New record 
Learning Precision is: 47.0/164.0=0.2865853658536585
New record 
Learning Precision is: 47.0/165.0=0.28484848484848485
New record 
Learning Precision is: 47.0/166.0=0.28313253012048195
New record 
Learning Precision is: 47.0/167.0=0.281437125748503
New record 
Learning Precision is: 47.0/168.0=0.27976190476190477
New record 
Learning Precision is: 47.0/169.0=0.2781065088757396
New record 
Learning Precision is: 47.0/170.0=0.27647058823529413
New record 
Learning Precision is: 47.0/171.0=0.27485380116959063
New record 
Learning Precision is: 47.0/172.0=0.27325581395348836
New record 
Learning Precision is: 47.0/173.0=0.27167630057803466
New record 
Learning Precision is: 47.0/174.0=0.27011494252873564
New record 
Learning Precision is: 47.0/175.0=0.26857142857142857
New record 
Learning Precision is: 47.0/176.0=0.26704545454545453
New record 
Learning Precision is: 47.0/177.0=0.2655367231638418
New record 
Learning Precision is: 47.0/178.0=0.2640449438202247
New record 
Learning Precision is: 47.0/179.0=0.26256983240223464
New record 
Learning Precision is: 47.0/180.0=0.2611111111111111
New record 
Learning Precision is: 47.0/181.0=0.2596685082872928
New record 
Learning Precision is: 47.0/182.0=0.25824175824175827
New record 
Learning Precision is: 47.0/183.0=0.2568306010928962
New record 
Learning Precision is: 47.0/184.0=0.2554347826086957
New record 
Learning Precision is: 47.0/185.0=0.25405405405405407
New record 
Learning Precision is: 47.0/186.0=0.25268817204301075
New record 
Learning Precision is: 47.0/187.0=0.25133689839572193
New record 
Learning Precision is: 47.0/188.0=0.25
New record 
Learning Precision is: 47.0/189.0=0.24867724867724866
New record 
Learning Precision is: 47.0/190.0=0.24736842105263157
New record 
Learning Precision is: 47.0/191.0=0.24607329842931938
New record 
Learning Precision is: 47.0/192.0=0.24479166666666666
New record 
Learning Precision is: 47.0/193.0=0.24352331606217617
New record 
Learning Precision is: 47.0/194.0=0.2422680412371134
New record 
Learning Precision is: 47.0/195.0=0.24102564102564103
New record 
Learning Precision is: 47.0/196.0=0.23979591836734693
New record 
Learning Precision is: 47.0/197.0=0.23857868020304568
New record 
Learning Precision is: 47.0/198.0=0.23737373737373738
New record 
Learning Precision is: 47.0/199.0=0.23618090452261306
New record 
Learning Precision is: 47.0/200.0=0.235
New record 
Aplha = 0.001 ; Number of records 200 ; Each running for 1.0 times.